Group,Pocket,Ligand,Actual,Initial,Model 0,Model 1,Model 2,Model 3,Model 4,Model 5,Model 6,Model 7,Model 8,Model 9
0,rNaV1.4 L1534A,STX,8.657577319,5.871750831604004,6.183652877807617,6.184854507446289,6.183078765869141,6.183476448059082,6.185516834259033,6.185476779937744,6.185159206390381,6.1838178634643555,6.184978485107422,6.184691905975342
0,rNaV1.4 E755A,STX,4.600364346,6.411539077758789,6.414425849914551,6.416807651519775,6.411825180053711,6.413966178894043,6.417169570922852,6.416018009185791,6.417016506195068,6.415024757385254,6.4159345626831055,6.415096759796143
0,rNaV1.4 K1252C,STX.N21.3,7.9788107010000004,5.794642448425293,6.522486686706543,6.5246500968933105,6.5200605392456055,6.522247314453125,6.52468204498291,6.524234294891357,6.5245842933654785,6.523066520690918,6.5239996910095215,6.523494243621826
0,rNaV1.4 E403D,STX.C13.1,5.484192365,5.591631889343262,6.2027587890625,6.204483509063721,6.199821472167969,6.202410697937012,6.2042083740234375,6.203769207000732,6.203451633453369,6.2033843994140625,6.2032976150512695,6.203214168548584
0,rNaV1.4 M1240T,GTX.3,6.9430951489999995,5.641963005065918,6.285721778869629,6.287336349487305,6.28504753112793,6.285666465759277,6.287582874298096,6.28754186630249,6.287354469299316,6.286120414733887,6.287245750427246,6.286796569824219
0,rNaV1.4 L1534A,STX.C10.1,6.901356273999999,6.166293144226074,6.066540718078613,6.0664496421813965,6.06517219543457,6.0653581619262695,6.067002296447754,6.067387104034424,6.066232204437256,6.0664825439453125,6.065804481506348,6.0665717124938965
0,rNaV1.4 M1240T/D1241I,STX.C10.1.C13.2,6.201694718,6.341303825378418,6.367712020874023,6.370369911193848,6.366046905517578,6.367798805236816,6.370896816253662,6.36970853805542,6.370379447937012,6.3686981201171875,6.369679927825928,6.368896961212158
0,rNaV1.4 L1534A,STX.C13.1,7.677780705,6.200736045837402,6.438152313232422,6.4425225257873535,6.434780120849609,6.438612937927246,6.441836357116699,6.440601825714111,6.442111968994141,6.439947128295898,6.4408183097839355,6.43928861618042
0,rNaV1.4 W756A,STX.N7.1,5.72399801,5.819266319274902,6.542325019836426,6.536901473999023,6.522470474243164,6.534632682800293,6.533685207366943,6.538986682891846,6.540393829345703,6.54624080657959,6.535750389099121,6.534267902374268
0,rNaV1.4 W1239A,STX.C13.2,4.982486697,6.207344055175781,6.212312698364258,6.211645603179932,6.209561347961426,6.210375785827637,6.212980270385742,6.2126240730285645,6.212168216705322,6.212337493896484,6.211244106292725,6.211675643920898
0,rNaV1.4 K1237A,TTX,5.261175856,5.899691581726074,6.6702117919921875,6.661165714263916,6.642034530639648,6.657163619995117,6.656255722045898,6.661129474639893,6.667031288146973,6.666351318359375,6.659402370452881,6.657161712646484
0,rNaV1.4 W756A,STX,7.66756154,5.823883056640625,6.2270050048828125,6.228428363800049,6.226138114929199,6.226883888244629,6.229183673858643,6.228942394256592,6.228705406188965,6.227396011352539,6.228481292724609,6.228137969970703
0,rNaV1.2,STX.N21.7,7.200659451,6.206197738647461,5.967243194580078,5.96716833114624,5.967432022094727,5.9669694900512695,5.967260360717773,5.968289852142334,5.967376708984375,5.966818809509277,5.967613697052002,5.967809200286865
0,rNaV1.4 M1240A,STX.N21.2,7.408935392999999,6.235247611999512,6.341127395629883,6.3433613777160645,6.33963680267334,6.34100341796875,6.3435492515563965,6.342739582061768,6.342997074127197,6.341774940490723,6.3426666259765625,6.3419718742370605
0,rNaV1.4,STX.C13.1,7.756961951,5.813226699829102,6.4279069900512695,6.4321608543396,6.425065040588379,6.428398132324219,6.431536674499512,6.4302592277526855,6.431768417358398,6.429722785949707,6.430574893951416,6.429076194763184
0,rNaV1.4,GTX.3,8.127843727,6.090151786804199,6.78959846496582,6.800772190093994,6.779141426086426,6.789760589599609,6.7931227684021,6.793649673461914,6.798183917999268,6.793056488037109,6.792825698852539,6.790085792541504
0,rNaV1.4 M1240I,STX.C13.1,7.41453927,5.796047210693359,6.492223739624023,6.49743127822876,6.487638473510742,6.492609977722168,6.495538711547852,6.494661808013916,6.496771812438965,6.4942121505737305,6.49508810043335,6.493243217468262
0,rNaV1.4 D1241I,STX.C13.2,7.1804560639999995,5.724001884460449,6.124737739562988,6.125694274902344,6.12418270111084,6.124483108520508,6.126305103302002,6.1263251304626465,6.126026153564453,6.124842643737793,6.125888347625732,6.125617980957031
0,rNaV1.4 M1240A/D1241A,STX.N21.2,6.801342912999999,5.665473937988281,6.481170654296875,6.485118865966797,6.478216171264648,6.481508255004883,6.484618663787842,6.483400821685791,6.484779357910156,6.482667922973633,6.483636379241943,6.482247829437256
0,rNaV1.4 Y401S,STX,4.9913998280000005,5.729196548461914,6.029932022094727,6.030790328979492,6.029644966125488,6.02974796295166,6.031125068664551,6.031633377075195,6.031036376953125,6.0300140380859375,6.031103134155273,6.031021595001221
0,rNaV1.6,TTX.C4.1,8.408935393,5.767382621765137,6.542664527893066,6.5552496910095215,6.529831886291504,6.544010162353516,6.543272972106934,6.546578884124756,6.552729606628418,6.547567367553711,6.547255516052246,6.543178081512451
0,rNaV1.4 M1240C,STX,8.54515514,5.82319450378418,6.087653160095215,6.088535785675049,6.087282180786133,6.087468147277832,6.088929176330566,6.089295864105225,6.088803768157959,6.0877685546875,6.088846683502197,6.088715076446533
0,rNaV1.4 M1240S,STX.C13.2,6.640164518,5.984905242919922,6.802186965942383,6.816287994384766,6.789914131164551,6.802420616149902,6.804868221282959,6.806392192840576,6.813152313232422,6.80626106262207,6.806321620941162,6.802576541900635
0,rNaV1.4 M1240N,STX,8.15490196,5.717486381530762,6.1633195877075195,6.164405822753906,6.162799835205078,6.163138389587402,6.164952754974365,6.165073871612549,6.164715766906738,6.163474082946777,6.1646037101745605,6.164379596710205
0,rNaV1.4 L1534A,STX.N21.2,8.638272164,5.637063980102539,6.225141525268555,6.2270307540893555,6.224359512329102,6.225275993347168,6.227449893951416,6.227185249328613,6.226988792419434,6.225647926330566,6.226865768432617,6.226367473602295
1,rNaV1.4 A1245C,STX,9.22184875,5.648189544677734,6.1444292068481445,6.145489692687988,6.143951416015625,6.144277572631836,6.146024703979492,6.146170616149902,6.145785808563232,6.144593238830566,6.145715713500977,6.1454620361328125
1,rNaV1.4,STX.N7.1,6.732828272000001,5.913455009460449,6.298506736755371,6.285102367401123,6.283000946044922,6.2908220291137695,6.289860725402832,6.2943830490112305,6.293111324310303,6.303725242614746,6.291358470916748,6.2898759841918945
1,rNaV1.4 I757A,STX,8.124938737,5.800320625305176,6.170083999633789,6.1712846755981445,6.16949462890625,6.169978141784668,6.171993732452393,6.171959400177002,6.17159366607666,6.17037296295166,6.171465873718262,6.171168804168701
1,hNaV1.7 T1398M/I1399D,GTX.3,7.958607315,5.860713005065918,6.643405914306641,6.650064468383789,6.636102676391602,6.643429756164551,6.647161483764648,6.6470184326171875,6.649132251739502,6.645634651184082,6.645902156829834,6.644106864929199
1,rNaV1.4,STX.C11.1,5.9469215570000005,5.81185245513916,4.41930627822876,4.174494743347168,4.410083770751953,4.414616584777832,4.411345481872559,4.415910720825195,4.4163408279418945,4.419049263000488,4.414345741271973,4.4138031005859375
1,rNaV1.4 D1241I,STX.C13.1,7.397940009,5.741283416748047,6.423696517944336,6.427674293518066,6.421043395996094,6.424145698547363,6.427122592926025,6.425820827484131,6.427340507507324,6.425365447998047,6.4262566566467285,6.424859046936035
1,rNaV1.4 W756A,STX.C13.2,6.263205245,5.7535858154296875,6.302846908569336,6.305785179138184,6.301386833190918,6.303160667419434,6.305845737457275,6.305011749267578,6.305631160736084,6.303947448730469,6.305046081542969,6.3040666580200195
1,rNaV1.4,STX.N21.28,7.3372421679999995,5.861205101013184,6.293277740478516,6.293724536895752,6.292186737060547,6.292959213256836,6.294431686401367,6.29429292678833,6.294348239898682,6.292881011962891,6.294087886810303,6.293874263763428
1,rNaV1.4,STX.N21.35,7.408935392999999,5.763404846191406,6.249855041503906,6.250890731811523,6.249142646789551,6.249591827392578,6.251068115234375,6.251213073730469,6.250967979431152,6.249878883361816,6.250868320465088,6.250738620758057
1,rNaV1.4 M1240A,STX,7.688246138999999,5.600335121154785,6.111468315124512,6.112443923950195,6.111088752746582,6.111331939697266,6.113244533538818,6.113258361816406,6.112874507904053,6.111790657043457,6.112692832946777,6.112574100494385
1,rNaV1.4 W1239A,STX.N21.2,5.466227942000001,5.9873504638671875,6.221277236938477,6.218900680541992,6.2142744064331055,6.217406272888184,6.219692707061768,6.219377517700195,6.218956470489502,6.221724510192871,6.217564582824707,6.218446254730225
1,rNaV1.4 E403D/M1240T/D1241I,STX.C10.1.C13.2,5.138167002,5.763919830322266,6.642116546630859,6.651663303375244,6.63201904296875,6.642207145690918,6.645476341247559,6.645780086517334,6.6496405601501465,6.645157814025879,6.645547866821289,6.642905235290527
1,rNaV1.8,STX,5.263603498,6.046247482299805,6.163902282714844,6.16521692276001,6.16325569152832,6.163744926452637,6.165501594543457,6.165572166442871,6.165268421173096,6.1641035079956055,6.16518497467041,6.165033340454102
1,rNaV1.4 E403D,STX,6.608183076,5.645647048950195,6.636233329772949,6.646493434906006,6.626067161560059,6.636533737182617,6.639431953430176,6.640363693237305,6.644110202789307,6.639163970947266,6.639594554901123,6.636685848236084
1,rNaV1.4 D1241A,STX.N21.2,7.93930216,5.884836196899414,5.995718002319336,5.9950408935546875,5.995063781738281,5.9950151443481445,5.9964599609375,5.996832847595215,5.996181011199951,5.995737075805664,5.99589204788208,5.996312141418457
1,rNaV1.2,STX.C13.2,7.795880017000001,5.755475044250488,6.531720161437988,6.53739595413208,6.525737762451172,6.531842231750488,6.535237789154053,6.534785747528076,6.536563396453857,6.533348083496094,6.533999443054199,6.532803535461426
1,rNaV1.4 Y401A,STX.N9.1,4.602059991,6.060908317565918,6.161657333374023,6.162865161895752,6.1610565185546875,6.161502838134766,6.163329124450684,6.163440227508545,6.16308069229126,6.161868095397949,6.1630096435546875,6.1628546714782715
1,rNaV1.4 D1241T,STX.C13.2,6.89279003,5.957548141479492,6.136452674865723,6.137458801269531,6.135926246643066,6.136240005493164,6.138111114501953,6.138119697570801,6.137803077697754,6.136590957641602,6.137656211853027,6.13737678527832
1,rNaV1.4 D1532N,TTX,6.43456543,5.918906211853027,6.364306449890137,6.370532989501953,6.352670669555664,6.364483833312988,6.364068031311035,6.36594295501709,6.3696513175964355,6.366950035095215,6.366861343383789,6.364566326141357
1,hNaV1.5,STX.C13.2,5.641494089,6.475163459777832,6.874741554260254,6.890377044677734,6.861908912658691,6.8750715255737305,6.877669811248779,6.87911319732666,6.88702917098999,6.879412651062012,6.879266738891602,6.87518310546875
1,rNaV1.4 Y401A,STX.C10.1,5.68613278,5.761699676513672,6.025615692138672,6.026525020599365,6.02532958984375,6.025467872619629,6.026852130889893,6.027332305908203,6.026721000671387,6.025702476501465,6.02681827545166,6.026712417602539
1,rNaV1.4 M1240K,TTX,4.243387471,5.694425582885742,7.314034461975098,7.336537837982178,7.294774055480957,7.314792633056641,7.313605785369873,7.317496299743652,7.334405422210693,7.320246696472168,7.319108009338379,7.3134870529174805
1,rNaV1.4 D1241I,STX.C10.1,6.0280287239999994,5.969840049743652,6.072731018066406,6.072269439697266,6.071043968200684,6.071235656738281,6.0728840827941895,6.073487758636475,6.072139263153076,6.072587013244629,6.07169771194458,6.072537899017334
1,rNaV1.4,STX.N21.37,6.9788107010000004,5.741560935974121,6.019865989685059,6.019881725311279,6.01978874206543,6.019579887390137,6.020077705383301,6.020859718322754,6.020184516906738,6.019444465637207,6.020296573638916,6.020409107208252
1,rNaV1.4 M1240A,STX.N7.1,5.377682339,5.7040205001831055,6.368677139282227,6.369784832000732,6.362961769104004,6.3662567138671875,6.368689060211182,6.3676018714904785,6.368616104125977,6.370091438293457,6.367283344268799,6.366884708404541
2,rNaV1.4 M1240T,STX.C13.1,6.919012952999999,6.119358062744141,6.552994728088379,6.5604166984558105,6.545051574707031,6.553248405456543,6.556110858917236,6.5561137199401855,6.5590338706970215,6.5554399490356445,6.555958271026611,6.553835391998291
2,rNaV1.4 Y401A,STX.N21.1,6.462180905,5.792993545532227,5.963111877441406,5.96268892288208,5.962742805480957,5.962466239929199,5.963410377502441,5.96459436416626,5.963390350341797,5.962989807128906,5.963388442993164,5.96368408203125
2,rNaV1.4,ZTX,11.51570016,5.957671165466309,6.797741889953613,6.807032585144043,6.7878570556640625,6.797602653503418,6.801053047180176,6.801616191864014,6.804983139038086,6.800331115722656,6.800503730773926,6.798298358917236
2,rNaV1.4 M1240T,STX.C13.2,7.920818754,5.748387336730957,6.893363952636719,6.907527446746826,6.880622863769531,6.893424987792969,6.89608907699585,6.897213459014893,6.90442419052124,6.897509574890137,6.897566795349121,6.893836498260498
2,rNaV1.4 W756A,STX.C13.1,6.353106376,6.167268753051758,6.397558212280273,6.401226043701172,6.395193099975586,6.398003578186035,6.400831699371338,6.399578094482422,6.400920867919922,6.399181365966797,6.40010929107666,6.398700714111328
2,rNaV1.4 D1241E,STX.C13.2,7.3010299960000005,5.977460861206055,6.356601715087891,6.359231472015381,6.35506534576416,6.356736183166504,6.359442234039307,6.35861349105835,6.359118461608887,6.357466697692871,6.358560562133789,6.357731342315674
2,rNaV1.4 D1241T,STX.C13.1,6.933674075,5.749002456665039,6.430118560791016,6.434056758880615,6.42756462097168,6.430539131164551,6.433680057525635,6.432376861572266,6.433719635009766,6.431764602661133,6.432642459869385,6.4312591552734375
2,rNaV1.4 E758D,STX.C10.1,4.602059991,5.776287078857422,6.487601280212402,6.492815017700195,6.482789039611816,6.488088607788086,6.491051197052002,6.490229606628418,6.492096424102783,6.489480972290039,6.490351676940918,6.4885663986206055
2,rNaV1.5,ZTX,9.301029996,5.8817033767700195,6.577569007873535,6.581344127655029,6.572683334350586,6.577323913574219,6.580333709716797,6.5799031257629395,6.58081579208374,6.57858943939209,6.579281806945801,6.578476428985596
2,rNaV1.4 M1240V,STX,8.782516056,5.652379989624023,6.150167465209961,6.151244640350342,6.149674415588379,6.150038719177246,6.151800155639648,6.151926040649414,6.151541233062744,6.150362968444824,6.151475429534912,6.151223182678223
2,rNaV1.4,STX,8.838631998,6.279203414916992,6.036328315734863,6.037175178527832,6.036145210266113,6.036106109619141,6.037606239318848,6.038084030151367,6.037504196166992,6.036398887634277,6.037534236907959,6.037440776824951
2,rNaV1.4 L1534A,STX.N9.1,6.243744351,5.855579376220703,6.173165321350098,6.174324989318848,6.172625541687012,6.172995567321777,6.174936294555664,6.174925804138184,6.174618244171143,6.173351287841797,6.174438953399658,6.174206733703613
2,hNaV1.5,STX,6.89279003,6.034695625305176,6.300167083740234,6.302008628845215,6.299040794372559,6.30014705657959,6.302679061889648,6.302271366119385,6.302154541015625,6.300764083862305,6.301882743835449,6.301506996154785
2,rNaV1.5,TTX,6.32330639,6.17148494720459,6.638306617736816,6.650006294250488,6.626611709594727,6.638711929321289,6.641092300415039,6.6422319412231445,6.647324562072754,6.641853332519531,6.642390727996826,6.639037132263184
2,rNaV1.4 M1240T/D1241I,TTX,7.346787486,5.880425453186035,6.689394950866699,6.703876972198486,6.673120498657227,6.689980506896973,6.6884684562683105,6.692874908447266,6.70058012008667,6.694043159484863,6.693480968475342,6.689103603363037
2,hNaV1.6,TTX.C4.1,8.408935393,6.173018455505371,6.805896759033203,6.823666572570801,6.785698890686035,6.806275367736816,6.8047776222229,6.80953311920166,6.819210052490234,6.81135368347168,6.8100690841674805,6.805233478546143
2,rNaV1.4 M1240T/D1241I,STX,6.272458743,6.551745414733887,6.795644760131836,6.807524681091309,6.783703804016113,6.79555606842041,6.798323631286621,6.799184799194336,6.804837703704834,6.799263954162598,6.799417018890381,6.796174049377441
2,rNaV1.4,STX.N21.23,8.346787486,6.27408504486084,6.650432586669922,6.659270286560059,6.640232086181641,6.650409698486328,6.653432846069336,6.654026985168457,6.657445907592773,6.652958869934082,6.653395175933838,6.650979042053223
2,rNaV1.4 M1240T/D1241A,STX.N21.2,7.4749551929999996,5.779071807861328,6.486793518066406,6.489924907684326,6.484564781188965,6.486931800842285,6.489966869354248,6.488846778869629,6.489766597747803,6.487929344177246,6.4889631271362305,6.487829208374023
2,rNaV1.4 Y401A,STX.C13.2,5.128981961,6.251148223876953,6.555423736572266,6.561555862426758,6.549167633056641,6.555556297302246,6.559143543243408,6.558698654174805,6.560675144195557,6.557320594787598,6.557870864868164,6.556332111358643
2,rNaV1.2,STX,9.22184875,6.221287727355957,6.217933654785156,6.219399452209473,6.217105865478516,6.217764854431152,6.219870567321777,6.219818592071533,6.21956205368042,6.2181901931762695,6.219382286071777,6.219185829162598
2,rNaV1.4 Y401A,STX,6.310247304,6.052978515625,6.277738571166992,6.279446125030518,6.276741981506348,6.277649879455566,6.280165195465088,6.279772758483887,6.279620170593262,6.278217315673828,6.279359817504883,6.278982162475586
2,rNaV1.4,STX.N21.33,7.361510742999999,5.929186820983887,6.297122001647949,6.298354148864746,6.295659065246582,6.296659469604492,6.298617362976074,6.298423767089844,6.298398017883301,6.297040939331055,6.298100471496582,6.297914981842041
2,rNaV1.4 T759C,STX.N21.3,7.838631997999999,6.068713188171387,5.88057804107666,5.88060998916626,5.8806867599487305,5.880349159240723,5.880843639373779,5.881838321685791,5.8809003829956055,5.880302429199219,5.881181240081787,5.881278991699219
2,rNaV1.4 E755A,TTX,4.261040372,6.131346702575684,6.4125776290893555,6.4174323081970215,6.40627384185791,6.412845611572266,6.415343761444092,6.415150165557861,6.417278289794922,6.414335250854492,6.415135860443115,6.413229465484619
3,rNaV1.4,STX.N21.36,6.283996656,6.450320243835449,6.635293006896973,6.642268657684326,6.624997138977051,6.634354591369629,6.637960433959961,6.637906074523926,6.641571521759033,6.636689186096191,6.6370649337768555,6.63494348526001
3,hNaV1.5,ZTX,9.853871964,5.984238624572754,6.572382926940918,6.57487678527832,6.569390296936035,6.5720415115356445,6.574713230133057,6.574164867401123,6.574711799621582,6.57314395904541,6.573944568634033,6.573285102844238
3,rNaV1.4,GTX.5,7.045757491,5.952045440673828,6.326316833496094,6.32771635055542,6.325429916381836,6.326112747192383,6.328049182891846,6.327930927276611,6.327835559844971,6.326573371887207,6.327648162841797,6.3272705078125
3,rNaV1.4 M1240V,STX.C13.2,7.903089987,5.750139236450195,6.6169891357421875,6.626658916473389,6.6071367263793945,6.61720085144043,6.620070934295654,6.620765686035156,6.624485492706299,6.619903564453125,6.620500564575195,6.617563247680664
3,rNaV1.4 M1240T/D1241I,STX.C13.1,6.760700521,6.026208877563477,6.542242050170898,6.549015045166016,6.535374641418457,6.54251766204834,6.545188903808594,6.544892311096191,6.548016548156738,6.544792175292969,6.545403480529785,6.543318748474121
3,rNaV1.4,STX.N21.5,7.1706962270000005,5.929355621337891,6.1914472579956055,6.192519187927246,6.190810203552246,6.19120979309082,6.1927103996276855,6.1928815841674805,6.192583084106445,6.191514015197754,6.192519664764404,6.192363262176514
3,rNaV1.4,STX.N21.25,7.638272164,5.795159339904785,6.129572868347168,6.130149841308594,6.128920555114746,6.128963470458984,6.130520343780518,6.13068962097168,6.130316734313965,6.12938117980957,6.130281925201416,6.130186557769775
3,rNaV1.4 D1241N,STX.C13.2,7.122053048,6.129057884216309,6.134302139282227,6.135318279266357,6.133770942687988,6.134075164794922,6.135951995849609,6.135961532592773,6.135656833648682,6.13443660736084,6.135498046875,6.1352386474609375
3,rNaV1.4 E758D,STX.C13.1,4.602059991,5.759964942932129,6.393938064575195,6.39895486831665,6.389595031738281,6.3949737548828125,6.396542549133301,6.395505905151367,6.3983659744262695,6.396395683288574,6.397485733032227,6.395148277282715
3,rNaV1.4,STX.N21.38,6.576754126,6.004050254821777,6.238768577575684,6.239435195922852,6.238117218017578,6.23834228515625,6.239645481109619,6.239958763122559,6.239614963531494,6.238539695739746,6.239543914794922,6.23945426940918
3,rNaV1.4 M1240A,STX.N21.1,7.744727495,5.762070655822754,6.359886169433594,6.36198091506958,6.358617782592773,6.359866142272949,6.362249374389648,6.36174201965332,6.361894130706787,6.360501289367676,6.361598968505859,6.361055374145508
3,rNaV1.4 M1240T/D1241I,STX.C13.2,7.886056647999999,5.7245378494262695,6.664355278015137,6.672520637512207,6.654875755310059,6.664441108703613,6.6670637130737305,6.667297840118408,6.670949459075928,6.667019844055176,6.6674604415893555,6.665089130401611
3,rNaV1.4 M1240C,STX.N21.3,7.3372421679999995,6.171935081481934,6.658120155334473,6.663456916809082,6.651877403259277,6.657922744750977,6.661673545837402,6.661243915557861,6.662784099578857,6.659857749938965,6.660208225250244,6.658997535705566
3,rNaV1.4 I757A,STX.C10.1,6.426548177999999,5.7737627029418945,6.036256790161133,6.031579494476318,6.031415939331055,6.031292915344238,6.033384799957275,6.034322261810303,6.032016277313232,6.035632133483887,6.030949592590332,6.033169746398926
3,rNaV1.2,STX.N21.10,6.891096872,5.670253753662109,6.157929420471191,6.157996654510498,6.157773017883301,6.157565116882324,6.1580915451049805,6.1588850021362305,6.158200740814209,6.157497406005859,6.158324718475342,6.158447742462158
3,rNaV1.4,GTX.2,7.958607315,6.051027297973633,6.680044174194336,6.6867570877075195,6.673102378845215,6.680086135864258,6.684060573577881,6.683714389801025,6.685873031616211,6.682343482971191,6.682562351226807,6.680940628051758
3,rNaV1.4,STX.C11.3,6.54515514,5.741229057312012,6.197024345397949,6.1984710693359375,6.196155548095703,6.1969194412231445,6.1993207931518555,6.199023246765137,6.198768615722656,6.19744873046875,6.198532581329346,6.198230266571045
3,rNaV1.2,STX.N21.9,7.3372421679999995,5.90488338470459,6.1980085372924805,6.198829650878906,6.197059631347656,6.197416305541992,6.199174880981445,6.199248790740967,6.199066638946533,6.197868347167969,6.198875904083252,6.198762893676758
3,rNaV1.4 E403Q,STX,4.259567829,5.768685340881348,6.598178863525391,6.607795715332031,6.588623046875,6.59861946105957,6.601612091064453,6.6022562980651855,6.605607986450195,6.6010236740112305,6.601469993591309,6.59874153137207
3,rNaV1.4,STX.N21.7,7.045757491,6.071714401245117,6.007884979248047,6.007701396942139,6.007835388183594,6.007569313049316,6.007936954498291,6.008792400360107,6.008073329925537,6.007484436035156,6.008236885070801,6.008400917053223
3,rNaV1.4 D1241N,STX,7.93930216,5.7974138259887695,6.192763328552246,6.193933486938477,6.192193984985352,6.19254207611084,6.194648265838623,6.194559574127197,6.194260120391846,6.192927360534668,6.194064617156982,6.193772315979004
3,rNaV1.4 D1241I,STX,7.501689446,5.6884918212890625,6.1538591384887695,6.15491247177124,6.153299331665039,6.1536407470703125,6.155533313751221,6.155571460723877,6.155245780944824,6.153982162475586,6.155098915100098,6.154800891876221
3,rNaV1.4 T759C,STX,8.809668302,6.19746208190918,6.1056318283081055,6.106637001037598,6.105188369750977,6.105497360229492,6.107210159301758,6.107421875,6.106972694396973,6.1058197021484375,6.106939792633057,6.106692790985107
3,rNaV1.4 M1240T,STX,7.37675071,5.798277854919434,6.837240219116211,6.850579261779785,6.825477600097656,6.837286949157715,6.840192794799805,6.841146945953369,6.847317218780518,6.8408308029174805,6.84124231338501,6.837676048278809
3,rNaV1.4 I757A,STX.C13.2,6.793174124,6.112087249755859,6.125400543212891,6.1264567375183105,6.124882698059082,6.125216484069824,6.126946926116943,6.127073287963867,6.126715183258057,6.1255693435668945,6.126637935638428,6.126448631286621
4,rNaV1.4,STX.C12.2,5.124938737,5.783069610595703,6.217489242553711,6.216280937194824,6.212485313415527,6.2147216796875,6.21732759475708,6.216831207275391,6.215208530426025,6.218132972717285,6.215246200561523,6.2158613204956055
4,rNaV1.4 M1240A,STX.C13.2,6.7044329,5.691646575927734,6.612947463989258,6.62252140045166,6.6030168533325195,6.613176345825195,6.615891456604004,6.616678714752197,6.620445251464844,6.615701675415039,6.616183280944824,6.613361358642578
4,rNaV1.2,STX.N21.8,6.790484985,5.983908653259277,6.306316375732422,6.307065963745117,6.305556297302246,6.306009292602539,6.307313442230225,6.307484149932861,6.307290554046631,6.306022644042969,6.3071136474609375,6.307024002075195
4,rNaV1.4 M1240A/D1241A,STX.C13.2,5.697669071,5.757457733154297,6.836028099060059,6.8517656326293945,6.8227996826171875,6.836734771728516,6.838432788848877,6.840710639953613,6.848394393920898,6.840958595275879,6.8408284187316895,6.8361897468566895
4,rNaV1.4 Y401A,STX.N7.1,4.602059991,5.789335250854492,6.134824752807617,6.136136531829834,6.134398460388184,6.134825706481934,6.136618137359619,6.136707305908203,6.136327743530273,6.135138511657715,6.13629150390625,6.136056423187256
4,rNaV1.4 Y401C/S,TTX,4.602059991,5.8113908767700195,6.427615165710449,6.432814598083496,6.422014236450195,6.428211212158203,6.430184841156006,6.429466724395752,6.432217121124268,6.429933547973633,6.430958271026611,6.4289021492004395
4,rNaV1.2,STX.N21.14,7.721246399,5.887321472167969,6.064022064208984,6.0640387535095215,6.064030647277832,6.0637054443359375,6.064163684844971,6.0651092529296875,6.064283847808838,6.063632011413574,6.064474582672119,6.064609050750732
4,rNaV1.4 E403D,STX.C13.2,5.4340931779999995,5.77866268157959,6.714596748352051,6.724654197692871,6.704280853271484,6.714587211608887,6.718094825744629,6.7186598777771,6.722427845001221,6.717394828796387,6.717729568481445,6.7151360511779785
4,rNaV1.4 E403D/M1240T/D1241I,STX.C10.1,4.187420845,5.768218994140625,6.48476505279541,6.488541603088379,6.481357574462891,6.484835624694824,6.48837947845459,6.486990928649902,6.488379001617432,6.486177444458008,6.487043857574463,6.485827922821045
4,rNaV1.2,STX.N21.21,7.552841969,5.921555519104004,6.065515518188477,6.065654277801514,6.06538200378418,6.065228462219238,6.065760612487793,6.066518783569336,6.065835952758789,6.0650739669799805,6.0659708976745605,6.066044807434082
4,rNaV1.4 Y401A,STX.N21.2,6.33866066,5.9210405349731445,6.185885429382324,6.187403678894043,6.184205055236816,6.185611724853516,6.187335014343262,6.18679666519165,6.186959266662598,6.18621826171875,6.186545372009277,6.186578273773193
4,rNaV1.4 E758D,STX.N21.2,5.420845442999999,6.370965957641602,6.168684959411621,6.169139862060547,6.164947509765625,6.1668806076049805,6.1688456535339355,6.168487071990967,6.168003082275391,6.168972015380859,6.167326927185059,6.167858600616455
4,rNaV1.4 W1239A,STX.C10.1,4.68125861,5.919864654541016,6.4883623123168945,6.494659900665283,6.482556343078613,6.488969802856445,6.491477012634277,6.491195201873779,6.493502140045166,6.490472793579102,6.491204261779785,6.489145278930664
4,rNaV1.5 C374Y,TTX,9.187086642999999,6.025951385498047,6.684297561645508,6.698625087738037,6.668608665466309,6.684957504272461,6.6838202476501465,6.687866687774658,6.695460319519043,6.689003944396973,6.688546180725098,6.6841254234313965
4,rNaV1.4 W756A,STX.C10.1,6.282329497,5.7265625,6.129600524902344,6.12129020690918,6.122316360473633,6.1236677169799805,6.125514507293701,6.126467704772949,6.124226093292236,6.129030227661133,6.123275279998779,6.125092506408691
4,rNaV1.4 M1240A/D1241A,STX,6.406713933,5.906497001647949,6.16633415222168,6.167571544647217,6.165780067443848,6.166257858276367,6.168207168579102,6.168226718902588,6.16784143447876,6.166657447814941,6.1677565574646,6.167481899261475
4,rNaV1.4,TTX,8.068033885,5.93202018737793,6.67329216003418,6.684429168701172,6.661857604980469,6.6734113693237305,6.675396919250488,6.677158355712891,6.682191848754883,6.677224159240723,6.677037715911865,6.673877716064453
4,rNaV1.4 A1245C,STX.N21.3,8.22184875,6.1453351974487305,6.233392715454102,6.234130382537842,6.232933044433594,6.233075141906738,6.234287261962891,6.234736442565918,6.234320640563965,6.233312606811523,6.234294414520264,6.234217643737793
4,rNaV1.4 E403D/M1240T/D1241I,STX,4.756465898,5.930013656616211,6.286970138549805,6.288918972015381,6.285822868347168,6.2869415283203125,6.28972864151001,6.289030075073242,6.289081573486328,6.287675857543945,6.288735866546631,6.288188457489014
4,rNaV1.4,STX.N21.26,7.769551079,5.908468246459961,5.8967132568359375,5.896985054016113,5.896868705749512,5.896602630615234,5.897265434265137,5.898181438446045,5.897267818450928,5.896615982055664,5.8975605964660645,5.897598743438721
4,rNaV1.4 E758D,STX.N7.1,4.602059991,5.92155647277832,6.446065902709961,6.450345516204834,6.442007064819336,6.446495056152344,6.449585914611816,6.448498249053955,6.449967861175537,6.447776794433594,6.448644638061523,6.447103977203369
4,rNaV1.2,STX.N21.3,7.721246399,5.804722785949707,5.966017723083496,5.965971946716309,5.966041564941406,5.9657440185546875,5.9661054611206055,5.967067241668701,5.966191291809082,5.965655326843262,5.966482162475586,5.966599941253662
4,rNaV1.4,STX.N21.6,8.022276395,5.71796989440918,6.110408782958984,6.1106109619140625,6.108735084533691,6.109419822692871,6.1104021072387695,6.111300468444824,6.110020637512207,6.110459327697754,6.1105475425720215,6.110644817352295
4,rNaV1.4 D1241I,STX.N21.2,8.610833916,5.912932395935059,6.084355354309082,6.085490703582764,6.084013938903809,6.084349632263184,6.085754871368408,6.086056709289551,6.085601806640625,6.084566116333008,6.08570671081543,6.085459232330322
4,rNaV1.4 M1240T,STX.C10.1,5.924088239,6.243168830871582,6.326320648193359,6.3278656005859375,6.325199127197266,6.3260650634765625,6.32855224609375,6.328066349029541,6.328049659729004,6.326637268066406,6.327702522277832,6.32751989364624
5,rNaV1.4,STX.C13.3,6.772113295,5.91202449798584,6.546804428100586,6.555473327636719,6.535490989685059,6.546764373779297,6.547626972198486,6.548302173614502,6.552551746368408,6.549633979797363,6.549452781677246,6.5467119216918945
5,rNaV1.4 E758D,STX,5.308299792,5.8947343826293945,6.140915870666504,6.1420698165893555,6.140480041503906,6.1408538818359375,6.142656326293945,6.142747402191162,6.142321586608887,6.141242027282715,6.142306804656982,6.142082691192627
5,rNaV1.4 E758D,STX.C13.2,4.602059991,7.1503400802612305,6.2179059982299805,6.221360206604004,6.214718818664551,6.217862129211426,6.2196364402771,6.218949317932129,6.219311714172363,6.21923828125,6.219025611877441,6.218329906463623
5,rNaV1.4 M1240E,STX,6.006299305,5.718467712402344,6.324091911315918,6.326246738433838,6.322884559631348,6.324145317077637,6.326681613922119,6.326123237609863,6.3262176513671875,6.3246965408325195,6.325862884521484,6.3252458572387695
5,rNaV1.4 E403D,STX.N21.2,6.713319031,6.022518157958984,6.510448455810547,6.517582893371582,6.503179550170898,6.510732650756836,6.513853549957275,6.514025688171387,6.516334533691406,6.512724876403809,6.513284206390381,6.511256694793701
5,rNaV1.4 L1534A,STX.C13.2,7.263603497999999,6.168402671813965,6.149722099304199,6.150879383087158,6.149145126342773,6.1495361328125,6.151549816131592,6.151487350463867,6.151205062866211,6.149918556213379,6.151015281677246,6.150734901428223
5,rNaV1.4 E758D,STX.N21.1,5.548367053,5.7441911697387695,6.571219444274902,6.578032493591309,6.564650535583496,6.571474075317383,6.575120449066162,6.574948787689209,6.576999187469482,6.573460578918457,6.573840141296387,6.572144508361816
5,rNaV1.4 E403Q,TTX,4.412799378,6.883449554443359,6.924081802368164,6.941120624542236,6.908665657043457,6.924843788146973,6.9257683753967285,6.929203033447266,6.937485218048096,6.92957878112793,6.9292521476745605,6.9241108894348145
5,rNaV1.2,STX.N21.17,6.530177984,5.77085018157959,6.410555839538574,6.414055347442627,6.404009819030762,6.410085678100586,6.4127726554870605,6.412296772003174,6.414107322692871,6.411263465881348,6.412067890167236,6.410651206970215
5,rNaV1.4,STX.C11.6,8.259637311,6.148777008056641,6.667469024658203,6.675263404846191,6.659064292907715,6.66767692565918,6.670860290527344,6.671008586883545,6.673879146575928,6.67006778717041,6.670144557952881,6.668148994445801
5,rNaV1.4,STX.C11.4,4.782516056,5.8824968338012695,6.238283157348633,6.239896774291992,6.237380027770996,6.238156318664551,6.240699768066406,6.240298748016357,6.2401442527771,6.238687515258789,6.239834308624268,6.239480972290039
5,rNaV1.4,GTX.3.2,5.381951902999999,5.728110313415527,6.752157211303711,6.7601847648620605,6.743447303771973,6.752078056335449,6.755744934082031,6.755851745605469,6.758622646331787,6.754549980163574,6.754724979400635,6.752809047698975
5,rNaV1.4,STX.2,5.721246399,5.923823356628418,6.15244197845459,6.153866767883301,6.151968955993652,6.152451515197754,6.154240131378174,6.154318332672119,6.15398645401001,6.152792930603027,6.153918743133545,6.153661251068115
5,rNaV1.4 W756A,STX.N21.1,8.070581074,6.337963104248047,6.165500640869141,6.165917873382568,6.164046287536621,6.1645355224609375,6.166469573974609,6.166362762451172,6.1659626960754395,6.165487289428711,6.165693283081055,6.165727138519287
5,rNaV1.4 D1241A,STX.N7.1,6.03550466,5.736851692199707,6.334673881530762,6.3235063552856445,6.319173812866211,6.3272857666015625,6.326505184173584,6.330387115478516,6.3299078941345215,6.338479995727539,6.327897071838379,6.326625347137451
5,hNaV1.7,GTX.3,6.121191068,6.330516815185547,6.309511184692383,6.3111467361450195,6.308768272399902,6.309418678283691,6.3114423751831055,6.311305999755859,6.311178684234619,6.309927940368652,6.311019420623779,6.310576915740967
5,rNaV1.4 D1241I,TTX,8.361510743,5.918861389160156,6.598024368286133,6.606229782104492,6.5881757736206055,6.598140716552734,6.600178241729736,6.600807189941406,6.6050238609313965,6.601245880126953,6.601280689239502,6.598678112030029
5,rNaV1.4 M1240V,STX.C13.1,7.397940009,6.039928436279297,6.5077362060546875,6.513826847076416,6.501638412475586,6.5081024169921875,6.510472774505615,6.510178089141846,6.512904644012451,6.509909629821777,6.510798931121826,6.508737087249756
5,rNaV1.4 I757A,STX.N7.1,5.76700389,5.897582054138184,6.535902976989746,6.5287675857543945,6.516263961791992,6.528071403503418,6.52710485458374,6.5323004722595215,6.533607482910156,6.539874076843262,6.529116153717041,6.527529239654541
5,hNaV1.7,STX.C13.2,8.022276395,6.319785118103027,6.678815841674805,6.687777042388916,6.668768882751465,6.678915023803711,6.68158483505249,6.68195915222168,6.685832977294922,6.681647300720215,6.682057857513428,6.6795196533203125
5,hNaV1.7,TTX,8.031517051,5.904506683349609,6.711097717285156,6.726015567779541,6.695417404174805,6.711795806884766,6.710934162139893,6.714818000793457,6.722659111022949,6.715888977050781,6.715545177459717,6.710943698883057
5,rNaV1.4,STX.C11.3.N21.30,6.3010299960000005,5.929140090942383,6.054784774780273,6.055910587310791,6.053218841552734,6.054413795471191,6.05536413192749,6.055461883544922,6.055293083190918,6.054899215698242,6.055103778839111,6.055281639099121
5,rNaV1.4,STX.C11.7,8.070581074,6.064583778381348,6.458805084228516,6.463939666748047,6.453585624694824,6.459054946899414,6.461352348327637,6.46017599105835,6.462559700012207,6.460716247558594,6.460806846618652,6.459228038787842
5,rNaV1.4 M1240T/D1241I,STX.N21.2,7.083546051,6.192706108093262,6.6897993087768555,6.698232650756836,6.680820465087891,6.689958572387695,6.693315029144287,6.693450927734375,6.696557521820068,6.6925048828125,6.692973613739014,6.690537452697754
5,rNaV1.4 D1532N,STX,4.271263234,6.2252044677734375,6.183368682861328,6.184779644012451,6.1826887130737305,6.183297157287598,6.185476303100586,6.185374736785889,6.184999942779541,6.183770179748535,6.1848835945129395,6.184580326080322
6,rNaV1.4,GTX.3.1,6.024568191,6.0282087326049805,6.467364311218262,6.470396518707275,6.465302467346191,6.467510223388672,6.470387935638428,6.469404220581055,6.47030782699585,6.468631744384766,6.469389915466309,6.46845817565918
6,rNaV1.4,STX.C12.1,3.891096872,6.218605995178223,6.1207380294799805,6.1216816902160645,6.119879722595215,6.120636940002441,6.122744083404541,6.122587203979492,6.122330188751221,6.121145248413086,6.121829509735107,6.1218037605285645
6,rNaV1.4 E403D,STX.N21.1,6.991399828,6.212649345397949,6.666486740112305,6.677111625671387,6.656140327453613,6.666565895080566,6.669559955596924,6.670527458190918,6.674578666687012,6.669317245483398,6.669688701629639,6.667048454284668
6,rNaV1.4,STX.N21.4,7.886056647999999,5.8788299560546875,5.933738708496094,5.933359622955322,5.932265281677246,5.93259334564209,5.933332920074463,5.934109687805176,5.931924819946289,5.933504104614258,5.932925701141357,5.933614730834961
6,rNaV1.4 M1240E,TTX,4.6818917760000005,6.371349334716797,7.567076683044434,7.588974952697754,7.5485334396362305,7.568280220031738,7.5678558349609375,7.571163177490234,7.592752933502197,7.57366943359375,7.573031425476074,7.5669169425964355
6,rNaV1.4 M1240C,STX.N21.9,6.8728952020000005,5.9069976806640625,6.311237335205078,6.312217712402344,6.310246467590332,6.310988426208496,6.312473773956299,6.312436103820801,6.312275409698486,6.311117172241211,6.312160491943359,6.31199836730957
6,rNaV1.4,STX.N21.27,7.756961951,6.073901176452637,6.002948760986328,6.003047943115234,6.002915382385254,6.002655982971191,6.003195762634277,6.003969669342041,6.003054618835449,6.002590179443359,6.003415107727051,6.003522872924805
6,rNaV1.4 M1240S,STX,7.0409586079999995,6.425115585327148,6.108282089233398,6.109269142150879,6.10777473449707,6.108121871948242,6.1097636222839355,6.110046863555908,6.109596252441406,6.108456611633301,6.109572887420654,6.109422206878662
6,rNaV1.2,STX.N21.13,7.920818754,5.918488502502441,6.006533622741699,6.006885051727295,6.006431579589844,6.006261825561523,6.007125377655029,6.00780725479126,6.0069684982299805,6.006258010864258,6.007206439971924,6.0072526931762695
6,rNaV1.4 I757A,STX.N9.1,5.741841807,6.174643516540527,6.194012641906738,6.1951823234558105,6.193441390991211,6.193812370300293,6.195702075958252,6.195721626281738,6.195423126220703,6.194169044494629,6.195268154144287,6.195114612579346
6,rNaV1.4 Y401S,GTX.3,4.76700389,5.757554054260254,6.436507225036621,6.43847131729126,6.434902191162109,6.436257362365723,6.438960552215576,6.438311576843262,6.438645362854004,6.437042236328125,6.438071250915527,6.437653541564941
6,rNaV1.4 D1241T,STX,7.619788757999999,6.030020713806152,6.634133338928223,6.642926216125488,6.624758720397949,6.634309768676758,6.637558937072754,6.638038158416748,6.6409687995910645,6.636788368225098,6.637227535247803,6.634702682495117
6,rNaV1.4 D1241E,STX.C13.1,8.443697498999999,6.1467132568359375,6.4072160720825195,6.411004543304443,6.404918670654297,6.407666206359863,6.410752773284912,6.409427165985107,6.410677433013916,6.408807754516602,6.409704208374023,6.408380508422852
6,rNaV1.4 W756A,STX.N9.1,4.602059991,5.72514533996582,6.13499641418457,6.136087417602539,6.134522438049316,6.134871482849121,6.1367878913879395,6.1368184089660645,6.136417388916016,6.135244369506836,6.13631534576416,6.136014938354492
6,rNaV1.4 D400A,TTX,5.842724604,5.58699893951416,6.750221252441406,6.763302326202393,6.737042427062988,6.75070858001709,6.752087593078613,6.754830360412598,6.7606425285339355,6.754873275756836,6.754593372344971,6.750376224517822
6,rNaV1.9,STX.N21.14,7.3372421679999995,5.611912727355957,6.06376838684082,6.06419563293457,6.063379287719727,6.063300132751465,6.0644850730896,6.064986228942871,6.064369201660156,6.063543319702148,6.0644917488098145,6.0644989013671875
6,rNaV1.4 M1240A/D1241A,STX.C10.1,5.273435784,6.027338981628418,6.348130226135254,6.349852561950684,6.346923828125,6.347960472106934,6.350594997406006,6.35001802444458,6.35002326965332,6.3485870361328125,6.3496503829956055,6.349287509918213
6,rNaV1.4 M1240T/D1241A,STX.C13.3,5.965171084,6.115589141845703,6.363217353820801,6.366212844848633,6.361278533935547,6.363380432128906,6.365939140319824,6.364968299865723,6.365919589996338,6.364373207092285,6.36548376083374,6.364253044128418
6,rNaV1.4,STX.N21.22,7.200659451,5.793320655822754,6.131366729736328,6.131467819213867,6.129062652587891,6.130415916442871,6.131743907928467,6.132193565368652,6.130837440490723,6.131436347961426,6.131300926208496,6.131665229797363
6,rNaV1.4 E403D/M1240T/D1241I,STX.C13.2,5.809388202,5.797568321228027,6.3148298263549805,6.317122936248779,6.313381195068359,6.314774513244629,6.317633152008057,6.3168439865112305,6.31719970703125,6.315670967102051,6.31685209274292,6.3161444664001465
6,rNaV1.4,STX.N21.1,9.022276395,5.80051326751709,6.2405242919921875,6.242411136627197,6.23964786529541,6.240654945373535,6.2428717613220215,6.242629528045654,6.242397308349609,6.241086959838867,6.242273807525635,6.241726875305176
6,rNaV1.4 M1240T/D1241A,STX,6.2616158760000005,6.005209922790527,6.129600524902344,6.130289077758789,6.128929138183594,6.129244804382324,6.131302356719971,6.131229877471924,6.13094425201416,6.129918098449707,6.130551338195801,6.130651473999023
6,rNaV1.4 M1240C,STX.N21.11,4.602059991,5.760763168334961,6.31401252746582,6.314666748046875,6.312894821166992,6.313665390014648,6.3151350021362305,6.315093517303467,6.31520938873291,6.31369686126709,6.314795017242432,6.314698696136475
6,rNaV1.4 W1239A,STX,6.024108864,5.812107086181641,5.940439224243164,5.937938690185547,5.937715530395508,5.938216209411621,5.93949556350708,5.940096378326416,5.938727855682373,5.9399566650390625,5.9385809898376465,5.939494609832764
6,hNaV1.7 T1398M/I1399D,TTX,8.602059991,5.729697227478027,6.686659812927246,6.698179244995117,6.675066947937012,6.686827659606934,6.688918113708496,6.690708637237549,6.695925712585449,6.690739631652832,6.690497398376465,6.6872429847717285
7,rNaV1.4 D1241A,STX.C13.2,6.435926021,5.948520660400391,6.159051895141602,6.160165309906006,6.158483505249023,6.158863067626953,6.160852432250977,6.1607794761657715,6.160491943359375,6.159249305725098,6.160328388214111,6.160024166107178
7,rNaV1.2,STX.N21.12,7.721246399,5.866340637207031,6.079464912414551,6.079802513122559,6.079045295715332,6.0791215896606445,6.080000400543213,6.0804595947265625,6.08004093170166,6.078984260559082,6.080014228820801,6.079980373382568
7,rNaV1.4 M1240T,TTX,6.632644078999999,5.766486167907715,6.648781776428223,6.6635355949401855,6.633256912231445,6.649187088012695,6.6483283042907715,6.651978492736816,6.659350395202637,6.653301239013672,6.652490139007568,6.648413181304932
7,rNaV1.4 M1240I,STX,9.096910012999999,5.747529029846191,6.087175369262695,6.088026523590088,6.0868072509765625,6.086971282958984,6.088405609130859,6.088772773742676,6.088295936584473,6.087245941162109,6.088324546813965,6.088199138641357
7,rNaV1.4 D1241A,STX.N9.1,5.604586232999999,6.076425552368164,6.145033836364746,6.146090030670166,6.144536972045898,6.144864082336426,6.14666748046875,6.146746635437012,6.146398067474365,6.145194053649902,6.146272659301758,6.146028995513916
7,rNaV1.4 W756A,STX.N21.2,7.709965389,5.74601936340332,6.140219688415527,6.141697883605957,6.139766693115234,6.140260696411133,6.142009735107422,6.142077445983887,6.14167594909668,6.140535354614258,6.141759395599365,6.141355991363525
7,rNaV1.4 W1239A,STX.N7.1,4.602059991,5.857769966125488,6.4700822830200195,6.460204124450684,6.452103614807129,6.4624738693237305,6.461200714111328,6.465731143951416,6.466058731079102,6.4745588302612305,6.463248252868652,6.461767196655273
7,rNaV1.4 D1241A,STX.N21.1,7.9788107010000004,5.676875114440918,6.496062278747559,6.500040054321289,6.492830276489258,6.496264457702637,6.499558448791504,6.498284339904785,6.499692440032959,6.497533798217773,6.498456954956055,6.497006893157959
7,rNaV1.4 W1239A,STX.N9.1,4.602059991,5.856388092041016,6.166280746459961,6.166810035705566,6.164994239807129,6.165541648864746,6.167909145355225,6.167629241943359,6.167267799377441,6.166654586791992,6.166696548461914,6.166933059692383
7,rNaV1.4 Y401S,GTX.2,4.946921557,6.108859062194824,6.222609519958496,6.2237348556518555,6.221833229064941,6.222311973571777,6.224161148071289,6.224231719970703,6.224023342132568,6.222804069519043,6.223790168762207,6.223727226257324
7,rNaV1.2,ZTX,10.48811664,5.639520645141602,6.262018203735352,6.262823104858398,6.2611589431762695,6.2616071701049805,6.263181209564209,6.26326847076416,6.262912273406982,6.261477470397949,6.262816905975342,6.262722015380859
7,rNaV1.4 E403D,STX.N9.1,4.602059991,5.776784896850586,6.520915985107422,6.525393486022949,6.515901565551758,6.520937919616699,6.524325370788574,6.523301124572754,6.52494478225708,6.522332191467285,6.523186206817627,6.5218939781188965
7,rNaV1.4 I757A,STX.N21.2,8.187086642999999,5.7419281005859375,6.168585777282715,6.170151710510254,6.168048858642578,6.1686601638793945,6.170496463775635,6.170412063598633,6.170103073120117,6.168907165527344,6.170114517211914,6.16964054107666
7,rNaV1.4 M1240T,STX.N21.2,7.657577319,5.768221855163574,6.341095924377441,6.342958450317383,6.340029716491699,6.34108829498291,6.343408107757568,6.343045234680176,6.342991352081299,6.3415422439575195,6.34273624420166,6.34232234954834
7,hNaV1.7,STX,6.454692884,5.955880165100098,6.242952346801758,6.244565486907959,6.242057800292969,6.242815971374512,6.2453813552856445,6.2449188232421875,6.244811534881592,6.243391990661621,6.244512557983398,6.244078159332275
7,rNaV1.4,STX.C10.1.C13.2,6.22184875,5.833301544189453,7.086718559265137,7.105078220367432,7.069637298583984,7.0876874923706055,7.087396144866943,7.091026782989502,7.101525783538818,7.092960357666016,7.092060565948486,7.086386203765869
7,rNaV1.4 M1240T/D1241I,STX.C13.4,8.387216143,6.016617774963379,6.46629524230957,6.469995975494385,6.461935997009277,6.466217041015625,6.4690752029418945,6.468057632446289,6.469733715057373,6.467411041259766,6.468465805053711,6.467226982116699
7,rNaV1.4 L1534A,STX.N7.1,6.407268234,5.679909706115723,6.3382368087768555,6.326889991760254,6.322519302368164,6.330771446228027,6.329957008361816,6.333872318267822,6.33341646194458,6.342131614685059,6.331394195556641,6.330071449279785
7,rNaV1.4,STX.N21.3,7.568636236000001,5.6636857986450195,6.357749938964844,6.358952522277832,6.356779098510742,6.357470512390137,6.359198093414307,6.359166145324707,6.359044075012207,6.357883453369141,6.358883380889893,6.358638763427734
7,rNaV1.4 K1252C,STX,9.0,6.042293548583984,6.2048540115356445,6.206148624420166,6.204172134399414,6.204687118530273,6.206874847412109,6.206704139709473,6.2064290046691895,6.205092430114746,6.206231594085693,6.2059221267700195
7,rNaV1.4 M1240T/D1241I,GTX.3,6.2660007129999995,6.235851287841797,6.307121276855469,6.30873441696167,6.306358337402344,6.307015419006348,6.309019565582275,6.308889865875244,6.308772087097168,6.30751895904541,6.308609962463379,6.308176517486572
7,rNaV1.4 M1240K,STX,4.3279982519999995,6.326165199279785,6.133064270019531,6.134127616882324,6.132595062255859,6.132953643798828,6.134732723236084,6.134856700897217,6.134430408477783,6.133305549621582,6.134397983551025,6.134146213531494
7,rNaV1.4,STX.N21.34,7.207608311,6.029223442077637,6.4915008544921875,6.495619297027588,6.484606742858887,6.491056442260742,6.4938249588012695,6.4935431480407715,6.495267868041992,6.49162483215332,6.4930243492126465,6.491812705993652
7,rNaV1.4 1242C,STX,9.045757491,6.310421943664551,6.21990966796875,6.22123908996582,6.219210624694824,6.219717025756836,6.221994876861572,6.221752166748047,6.221520900726318,6.220144271850586,6.221286296844482,6.220953941345215
7,rNaV1.4 1242C,STX.N21.3,8.022276395,5.918249130249023,6.09719181060791,6.097620010375977,6.096779823303223,6.096795082092285,6.097787380218506,6.098275184631348,6.097773551940918,6.096855163574219,6.097809314727783,6.097816467285156
8,rNaV1.4 D1241I,GTX.3,7.721246399,5.68515682220459,6.938326835632324,6.9510884284973145,6.926849365234375,6.938159942626953,6.942080020904541,6.942429065704346,6.9484052658081055,6.942327499389648,6.9414215087890625,6.938537120819092
8,rNaV1.4 E403D,STX.C10.1.C13.2,4.842392147,5.759683609008789,6.742423057556152,6.755905628204346,6.729975700378418,6.742832183837891,6.744905471801758,6.746248245239258,6.7526044845581055,6.746103286743164,6.746685028076172,6.742926120758057
8,rNaV1.4 Y401A,STX.C13.1,5.821166882999999,5.635615348815918,6.298989295959473,6.302835941314697,6.296989440917969,6.299656867980957,6.302351474761963,6.3010711669921875,6.302384376525879,6.300660133361816,6.301804542541504,6.300346374511719
8,rNaV1.4 M1240A,STX.C13.1,6.474307475,6.622049331665039,6.391406059265137,6.395565032958984,6.388392448425293,6.391929626464844,6.394809246063232,6.393640995025635,6.395247459411621,6.39311408996582,6.394066333770752,6.39260196685791
8,rNaV1.2,STX.N21.15,8.301029996,4.0279669761657715,6.132713317871094,6.133179664611816,6.132326126098633,6.132413864135742,6.1333489418029785,6.1337761878967285,6.133327007293701,6.132403373718262,6.13330078125,6.13332986831665
8,rNaV1.4,STX.N21.29,7.366531544,5.782182693481445,6.09196662902832,6.091968536376953,6.091858863830566,6.091625213623047,6.09212589263916,6.093031406402588,6.092242240905762,6.091607093811035,6.092393398284912,6.092537879943848
8,rNaV1.4,STX.N9.1,6.357041121,5.674798011779785,6.133480072021484,6.134426116943359,6.132997512817383,6.133255958557129,6.134943962097168,6.135092735290527,6.134735107421875,6.133602142333984,6.1346564292907715,6.1345319747924805
8,rNaV1.4 D1241N,STX.C13.1,7.211124884,5.8172712326049805,6.409384727478027,6.413082122802734,6.407010078430176,6.409852981567383,6.412792205810547,6.411432266235352,6.412787437438965,6.411009788513184,6.411927223205566,6.410595417022705
8,rNaV1.4,STX.N21.24,7.381951902999999,5.813750267028809,6.126639366149902,6.1278181076049805,6.126169204711914,6.12653923034668,6.128053188323975,6.128292083740234,6.127898693084717,6.126794815063477,6.1278767585754395,6.127721786499023
8,rNaV1.4 Y401S,STX.C10.1,4.1979107419999995,6.22601318359375,6.012920379638672,6.013855457305908,6.012672424316406,6.012789726257324,6.0141801834106445,6.014660358428955,6.014054298400879,6.013058662414551,6.01416540145874,6.014052867889404
8,rNaV1.4 M1240S,STX.C13.1,6.434742657,6.008183479309082,6.388552665710449,6.39286994934082,6.383876800537109,6.389065742492676,6.391134262084961,6.390045166015625,6.392239093780518,6.390414237976074,6.390750885009766,6.389446258544922
8,rNaV1.4 D1241A,STX.C10.1,6.260427656,5.715822219848633,5.9355669021606445,5.93093729019165,5.931349754333496,5.931105613708496,5.932857990264893,5.934122562408447,5.931259632110596,5.93501091003418,5.930455207824707,5.93287992477417
8,rNaV1.4 D1241A,STX.C13.1,7.292429824,5.795648574829102,6.444174766540527,6.448592662811279,6.440800666809082,6.444648742675781,6.447742938995361,6.446474552154541,6.448160171508789,6.446043014526367,6.4468770027160645,6.445323944091797
8,rNaV1.7,STX.N21.17,6.617082865,5.97454833984375,6.127850532531738,6.1280646324157715,6.127287864685059,6.127378463745117,6.128744602203369,6.129127502441406,6.128647804260254,6.127610206604004,6.128488540649414,6.128620147705078
8,hNaV1.5,STX.N21.3,5.647817482000001,5.892434120178223,5.974071502685547,5.974011421203613,5.974078178405762,5.973779678344727,5.974178791046143,5.975130081176758,5.974264144897461,5.973690986633301,5.974532127380371,5.974651336669922
8,rNaV1.4 D400A,STX,6.056604423,6.068619728088379,5.982200622558594,5.982882022857666,5.982068061828613,5.982052803039551,5.983222007751465,5.983822345733643,5.9831342697143555,5.982264518737793,5.98328971862793,5.98322057723999
8,rNaV1.4 M1240N,STX.C13.1,6.57105571,6.530705451965332,6.630916595458984,6.639714241027832,6.62094783782959,6.630973815917969,6.6335577964782715,6.634075164794922,6.637852668762207,6.633588790893555,6.634127616882324,6.631640434265137
8,rNaV1.4,STX.C13.2,7.381951902999999,5.824112892150879,6.330135345458984,6.333314418792725,6.328365325927734,6.330408096313477,6.333209991455078,6.332240104675293,6.333146095275879,6.331307411193848,6.332342147827148,6.331301212310791
8,rNaV1.4 M1240T/D1241A,STX.C13.2,7.105130343,5.825823783874512,6.800540924072266,6.815175533294678,6.787548065185547,6.801107406616211,6.8027262687683105,6.805080413818359,6.812000751495361,6.80522346496582,6.805089473724365,6.800607204437256
8,rNaV1.4 M1240N,STX.C13.2,6.662540739,5.721898078918457,6.308333396911621,6.310122966766357,6.307132720947266,6.30821418762207,6.31088924407959,6.310260772705078,6.310316562652588,6.308863639831543,6.309894561767578,6.309504508972168
8,rNaV1.4 W1239A,STX.C13.1,5.637894681000001,6.193629264831543,6.5977325439453125,6.607120513916016,6.587222099304199,6.598475456237793,6.5994553565979,6.601250648498535,6.605584144592285,6.601635932922363,6.6016035079956055,6.59795618057251
8,rNaV1.4 M1240A/D1241A,STX.C13.1,6.306273051,5.744351387023926,6.3846588134765625,6.3887786865234375,6.380048751831055,6.3847856521606445,6.386903285980225,6.3857197761535645,6.387711524963379,6.386322021484375,6.386263847351074,6.385244369506836
8,rNaV1.4 M1240A,STX.C10.1,6.209714836,5.765138626098633,6.329729080200195,6.331426620483398,6.3286027908325195,6.329575538635254,6.332156658172607,6.3316121101379395,6.331585884094238,6.3301801681518555,6.331242084503174,6.330952167510986
8,rNaV1.4 M1240T/D1241I,STX.C13.3,5.688882157,5.595823287963867,6.692994117736816,6.704076290130615,6.681400299072266,6.693134307861328,6.695326805114746,6.696517467498779,6.701391696929932,6.696213722229004,6.696734428405762,6.693538665771484
8,rNaV1.4,STX.C10.1,6.968591536,5.667628288269043,5.987652778625488,5.984023571014404,5.9841413497924805,5.983898162841797,5.985729217529297,5.9869232177734375,5.984414100646973,5.987275123596191,5.983578681945801,5.985645771026611
9,rNaV1.4 E758Q,STX,4.390083457,5.88601016998291,6.099626541137695,6.100617408752441,6.099185943603516,6.099442481994629,6.101013660430908,6.1013007164001465,6.100872993469238,6.099750518798828,6.100871562957764,6.100727558135986
9,rNaV1.4 M1240T/D1241I,STX.C10.1,4.986046851,5.750835418701172,6.321527481079102,6.323050022125244,6.320462226867676,6.321272850036621,6.323763370513916,6.323300838470459,6.32326078414917,6.321835517883301,6.322901725769043,6.322668075561523
9,rNaV1.4 M1240A,STX.N9.1,5.3185326260000005,5.966974258422852,6.213461875915527,6.215052604675293,6.212721824645996,6.213386535644531,6.21572732925415,6.215472221374512,6.2152323722839355,6.213858604431152,6.215010643005371,6.2148356437683105
9,rNaV1.4 W1239A,STX.N21.1,5.826376742000001,5.919681549072266,6.211259841918945,6.2128586769104,6.210422515869141,6.211287498474121,6.213481903076172,6.21322774887085,6.213005542755127,6.211775779724121,6.212747097015381,6.212377548217773
9,rNaV1.4,STX.N21.32,6.6989700039999995,5.892309188842773,6.372539520263672,6.376395225524902,6.369988441467285,6.372976303100586,6.375899314880371,6.374857425689697,6.376097679138184,6.3741302490234375,6.3750739097595215,6.373595237731934
9,rNaV1.4,STX.C13.4,8.515700161,6.047917366027832,6.985116958618164,7.0017900466918945,6.970961570739746,6.985820770263672,6.9876017570495605,6.989943981170654,6.998691082000732,6.990716934204102,6.990117073059082,6.984251022338867
9,rNaV1.4 M1240A/D1241A,STX.C13.3,5.715456477,5.872791290283203,6.362005233764648,6.366152763366699,6.358394622802734,6.362149238586426,6.36409854888916,6.363108158111572,6.3649163246154785,6.363306999206543,6.363851547241211,6.362640380859375
9,rNaV1.4 I757A,STX.N21.1,8.501689446,6.176182746887207,6.339482307434082,6.342089653015137,6.338189125061035,6.3397216796875,6.342395305633545,6.341529369354248,6.341878890991211,6.340404510498047,6.341561317443848,6.340493202209473
9,rNaV1.4 L1534A,STX.N21.1,8.978810701,5.685142517089844,6.176107406616211,6.176995277404785,6.175539970397949,6.175780296325684,6.177438735961914,6.177642345428467,6.177280902862549,6.176133155822754,6.177206039428711,6.177026748657227
9,rNaV1.4 K1237A,STX,5.898665427,5.854442596435547,6.09024715423584,6.077474594116211,6.081561088562012,6.0829010009765625,6.085057258605957,6.086058616638184,6.08351993560791,6.089716911315918,6.082461833953857,6.0840229988098145
9,rNaV1.4 E403D,STX.C10.1,5.7020207560000005,5.602635383605957,7.034655570983887,7.051733493804932,7.020861625671387,7.035233497619629,7.038224697113037,7.039473056793213,7.048614501953125,7.040212631225586,7.039907932281494,7.035369873046875
9,rNaV1.4 E758Q,TTX,5.827484637,5.817821502685547,6.650173187255859,6.6605706214904785,6.63899040222168,6.650279998779297,6.6521148681640625,6.653688907623291,6.658506870269775,6.653903007507324,6.653799057006836,6.650777339935303
9,rNaV1.4 D1241A,STX,7.93930216,5.71745491027832,6.158260345458984,6.159412384033203,6.157726287841797,6.158121109008789,6.160087585449219,6.160053253173828,6.159719944000244,6.158469200134277,6.159585952758789,6.1592912673950195
9,rNaV1.4 E403D,STX.N7.1,4.602059991,5.674644470214844,6.366428375244141,6.369228839874268,6.364483833312988,6.366458892822266,6.369513511657715,6.368467807769775,6.369239807128906,6.367414474487305,6.368422031402588,6.367612838745117
9,rNaV1.6,STX.N21.20,6.576754126,5.858449935913086,6.052617073059082,6.052947044372559,6.052366256713867,6.052219390869141,6.053138732910156,6.053730010986328,6.053109169006348,6.052325248718262,6.053215980529785,6.0532026290893555
9,rNaV1.4,STX.C11.4.N21.31,4.66756154,5.747968673706055,6.222562789916992,6.224127292633057,6.22178840637207,6.222484588623047,6.224592208862305,6.224452972412109,6.2242255210876465,6.222890853881836,6.224053859710693,6.223773002624512
9,rNaV1.4 I757A,STX.C13.1,6.884389487999999,6.194540023803711,6.514251708984375,6.5200300216674805,6.508593559265137,6.514780044555664,6.517536163330078,6.516963958740234,6.519151210784912,6.516303062438965,6.517092227935791,6.515262603759766
9,rNaV1.4 M1240I,STX.C13.2,8.337242168,6.368167877197266,6.638034820556641,6.64823579788208,6.627567291259766,6.638270378112793,6.6407904624938965,6.641773223876953,6.6459503173828125,6.641166687011719,6.641723155975342,6.638582229614258
9,hNaV1.7 T1398M/I1399D,STX,8.93930216,6.206957817077637,6.224455833435059,6.225649833679199,6.22380256652832,6.224218368530273,6.226346015930176,6.226186275482178,6.225951194763184,6.224625587463379,6.225735187530518,6.225416660308838
9,rNaV1.2,STX.N21.16,7.48148606,6.164812088012695,6.20506477355957,6.205782413482666,6.204425811767578,6.204715728759766,6.206007480621338,6.206273078918457,6.205968856811523,6.204873085021973,6.205877304077148,6.205783843994141
9,rNaV1.4 D1241E,STX,9.187086642999999,6.179880142211914,6.522021293640137,6.529289722442627,6.514570236206055,6.522303581237793,6.525424003601074,6.5255913734436035,6.527997970581055,6.524341583251953,6.524876594543457,6.5226945877075195
9,rNaV1.4 E758D,STX.N9.1,4.602059991,5.7064008712768555,6.160951614379883,6.162328720092773,6.160429954528809,6.160951614379883,6.162951469421387,6.162961483001709,6.162583351135254,6.161343574523926,6.162449836730957,6.162219047546387
9,hNaV1.5,STX.N21.25,6.15490196,6.060384750366211,5.912273406982422,5.91217041015625,5.912215232849121,5.911805152893066,5.912493705749512,5.913519382476807,5.912345886230469,5.912034034729004,5.912570476531982,5.912892818450928
9,rNaV1.4,STX.N21.2,8.647817482,5.746679306030273,6.244866371154785,6.246619701385498,6.244091033935547,6.244985580444336,6.247215747833252,6.246729850769043,6.2466206550598145,6.245513916015625,6.246575832366943,6.245734691619873
9,rNaV1.4 Y401S,STX.C11.6,4.289882635,5.77180290222168,6.459833145141602,6.461955547332764,6.458028793334961,6.45960807800293,6.462411403656006,6.461686134338379,6.462106704711914,6.46043586730957,6.461459636688232,6.460960388183594
9,hNaV1.5,STX.N21.14,6.764471553,5.716031074523926,6.174313545227051,6.174848556518555,6.1736955642700195,6.173962593078613,6.175114631652832,6.175381183624268,6.175104141235352,6.173860549926758,6.174972057342529,6.174898624420166
