Model,Train RMSE,Test RMSE
0,0.5988209621972247,1.1733292207922896
1,0.5693535754881802,1.4949545967805862
2,0.6304713476665527,1.399740225696539
3,0.6381029299097801,0.8159508866868517
4,0.622666772024265,1.1232828624801228
5,0.623085322688894,1.006083191210307
6,0.6822082930890417,1.478802207703014
7,0.649522199710298,0.9682095755171913
8,0.6107530348358644,1.4642805260449652
9,0.7042835075029975,1.0858136527782176
aggregate,0.6329267945113098,1.2010446945690083
