Model,Train RMSE,Test RMSE
0,1.569422646541976,1.3543492406890774
1,1.5555006903202029,1.3995288395834418
2,1.55921310505785,1.246955759853581
3,1.4918114272079301,1.5290227711105833
4,1.4175320315262123,2.1476958580504206
5,1.4928520070673246,1.70546450422891
6,1.5390381818793881,1.4344031703038167
7,1.8211519180751183,1.7409677467992166
8,1.507873454113192,1.6004065721007927
9,1.5543353078569426,1.2537945234056247
aggregate,1.550873076964614,1.5412588986125466
